0,Line,105,328,20,0
1,Line,144,174,20,0
2,Line,151,127,20,0
3,Line,162,49,20,90
4,Line,90,176,20,3
5,Line,91,196,20,3
6,Line,73,333,20,83
7,Line,83,313,20,83
8,Line,46,378,20,6
9,Line,183,90,20,6
10,Line,79,322,20,81
11,Line,141,320,20,78
12,Line,158,277,20,78
13,Line,137,331,20,78
14,Line,168,257,20,78
15,Line,109,190,20,78
16,Line,177,238,20,78
17,Line,113,230,20,75
18,Line,131,87,20,75
19,Line,95,292,20,75
20,Line,65,353,20,75
21,Line,139,74,20,75
22,Line,99,285,20,75
23,Line,103,274,20,75
24,Line,145,310,20,75
25,Line,150,297,20,75
26,Line,105,269,20,75
27,Line,160,271,20,75
28,Line,92,302,20,75
29,Line,110,392,20,75
30,Line,111,247,20,75
31,Line,112,242,20,75
32,Line,182,227,20,75
33,Line,185,216,20,75
34,Line,189,205,20,75
35,Line,197,89,20,75
36,Line,130,352,20,72
37,Line,151,295,20,72
38,Line,152,212,20,72
39,Line,153,188,20,72
40,Line,111,250,20,72
41,Line,147,149,20,162
42,Line,161,121,20,72
43,Line,109,177,20,72
44,Line,164,95,20,72
45,Line,165,72,20,72
46,Line,165,119,20,72
47,Line,87,367,20,162
48,Line,113,233,20,72
49,Line,113,236,20,72
50,Line,181,223,20,72
51,Line,123,108,20,72
52,Line,142,69,20,72
53,Line,188,201,20,72
54,Line,127,97,20,72
55,Line,192,194,20,72
56,Line,196,171,20,72
57,Line,149,300,20,72
58,Line,198,160,20,72
59,Line,199,113,20,72
60,Line,200,137,20,72
61,Line,142,197,21,177
62,Line,156,105,21,177
63,Line,122,372,20,69
64,Line,160,141,20,69
65,Line,80,327,20,69
66,Line,193,177,20,69
67,Line,193,181,20,69
68,Line,151,206,20,69
69,Line,111,163,20,69
70,Line,107,265,20,69
71,Line,185,79,20,69
72,Line,199,124,20,69
73,Line,110,253,20,69
74,Line,129,357,20,67
75,Line,109,182,20,67
76,Line,111,146,20,67
77,Line,73,337,20,67
78,Line,114,135,20,67
79,Line,114,225,21,75
80,Line,135,83,20,67
81,Line,135,341,21,75
82,Line,115,388,20,67
83,Line,137,336,20,67
84,Line,121,113,20,67
85,Line,109,194,20,67
86,Line,109,260,20,67
87,Line,198,154,20,67
88,Line,125,144,20,67
89,Line,144,315,20,67
90,Line,90,307,20,67
91,Line,199,148,21,75
92,Line,175,272,20,157
93,Line,138,78,21,73
94,Line,112,205,21,73
95,Line,147,234,21,73
96,Line,139,221,21,163
97,Line,148,303,21,73
98,Line,125,367,20,64
99,Line,181,233,20,64
100,Line,61,368,20,64
101,Line,111,207,20,64
102,Line,154,288,20,64
103,Line,69,347,20,64
104,Line,140,325,20,64
105,Line,108,169,20,64
106,Line,130,92,20,64
107,Line,109,157,20,64
108,Line,118,123,20,64
109,Line,112,219,20,64
110,Line,133,346,20,64
111,Line,112,237,20,64
112,Line,64,357,20,64
113,Line,199,118,20,64
114,Line,124,102,20,64
115,Line,199,142,20,64
116,Line,94,296,20,64
117,Line,180,49,20,64
118,Line,115,130,22,81
119,Line,110,88,20,152
120,Line,199,130,20,62
121,Line,193,189,20,62
122,Line,197,166,20,62
123,Line,198,106,20,62
124,Line,84,317,21,68
125,Line,121,378,21,68
126,Line,127,363,22,76
127,Line,164,293,21,155
128,Line,188,211,21,65
129,Line,63,373,21,65
130,Line,177,243,21,65
131,Line,159,45,23,90
132,Line,88,203,23,5
133,Line,196,98,21,63
134,Line,185,250,20,147
135,Line,102,374,21,151
136,Line,166,203,24,0
137,Line,161,227,23,160
138,Line,122,69,21,146
139,Line,169,100,23,65
140,Line,196,63,20,38
141,Line,166,116,24,70
142,Line,66,364,24,66
143,Line,51,334,25,159
144,Line,191,63,20,43
145,Line,115,152,26,70
146,Line,126,267,27,155
147,Line,158,165,28,69
148,Line,164,147,28,66
149,Line,165,308,29,160
150,Line,87,175,32,0
151,Line,93,150,33,169
152,Line,178,276,31,153
153,Line,104,114,35,154
154,Line,209,92,37,16
155,Line,174,173,40,169
156,Line,149,88,42,171
157,Line,51,306,42,167
158,Line,196,240,39,152
159,Line,51,346,44,163
160,Line,154,94,46,165
161,Line,143,142,50,169
162,Line,143,266,48,160
163,Line,218,135,51,4
164,Line,181,144,51,174
165,Line,43,332,51,173
166,Line,139,147,51,172
167,Line,181,179,51,168
168,Line,173,197,51,168
169,Line,214,190,51,167
170,Line,80,175,51,166
171,Line,52,280,51,165
172,Line,66,229,51,163
173,Line,151,348,51,161
174,Line,120,333,51,160
175,Line,95,124,51,160
176,Circle,99,347,8,0
177,Circle,152,197,11,0
178,Circle,158,284,11,0
179,Circle,166,109,14,0
