0,Line,62,228,20,90
1,Line,96,243,20,0
2,Line,115,308,20,0
3,Line,157,341,20,90
4,Line,115,220,20,3
5,Line,76,135,20,3
6,Line,95,323,20,96
7,Line,105,42,20,83
8,Line,79,180,20,6
9,Line,48,173,20,96
10,Line,120,82,20,96
11,Line,123,93,20,96
12,Line,124,104,20,96
13,Line,126,115,20,96
14,Line,128,138,20,96
15,Line,129,150,20,96
16,Line,129,162,20,96
17,Line,129,174,20,96
18,Line,129,186,20,96
19,Line,129,198,20,96
20,Line,148,309,20,96
21,Line,151,320,20,96
22,Line,87,282,20,96
23,Line,160,352,20,96
24,Line,163,363,20,96
25,Line,165,374,20,96
26,Line,188,262,20,6
27,Line,129,142,20,98
28,Line,109,381,20,98
29,Line,129,210,20,98
30,Line,107,77,20,8
31,Line,81,200,20,8
32,Line,118,327,20,11
33,Line,119,72,20,101
34,Line,50,185,20,101
35,Line,98,204,20,101
36,Line,52,196,20,101
37,Line,55,207,20,101
38,Line,128,127,20,101
39,Line,59,218,20,101
40,Line,48,150,20,101
41,Line,106,371,20,101
42,Line,94,306,20,101
43,Line,117,391,20,104
44,Line,133,233,20,104
45,Line,47,162,20,104
46,Line,97,329,20,107
47,Line,133,239,20,107
48,Line,97,336,20,107
49,Line,126,110,20,107
50,Line,153,326,20,107
51,Line,94,318,20,107
52,Line,129,181,20,107
53,Line,58,212,20,107
54,Line,164,380,20,107
55,Line,109,379,20,107
56,Line,147,299,20,107
57,Line,146,296,21,90
58,Line,73,157,21,2
59,Line,130,221,21,98
60,Line,129,192,20,110
61,Line,48,156,20,110
62,Line,51,190,20,110
63,Line,127,121,20,110
64,Line,85,44,20,110
65,Line,128,133,20,110
66,Line,113,389,20,110
67,Line,62,223,20,110
68,Line,48,144,20,110
69,Line,54,201,20,110
70,Line,160,347,20,110
71,Line,129,156,20,110
72,Line,122,88,20,110
73,Line,49,132,20,110
74,Line,106,368,20,110
75,Line,68,77,20,110
76,Line,101,338,21,101
77,Line,48,168,20,112
78,Line,62,71,20,157
79,Line,93,299,21,104
80,Line,124,99,20,112
81,Line,107,359,21,104
82,Line,60,243,20,22
83,Line,100,347,21,106
84,Line,134,325,20,25
85,Line,83,49,20,115
86,Line,75,178,22,5
87,Line,103,357,21,109
88,Line,130,168,21,109
89,Line,91,91,21,109
90,Line,37,189,22,8
91,Line,81,306,22,10
92,Line,130,205,21,111
93,Line,130,217,21,111
94,Line,95,312,21,111
95,Line,121,77,22,103
96,Line,158,336,22,103
97,Line,140,71,20,30
98,Line,158,330,22,108
99,Line,167,358,23,100
100,Line,91,96,24,97
101,Line,104,350,25,101
102,Line,55,178,25,104
103,Line,78,157,26,0
104,Line,108,170,26,0
105,Line,87,223,25,18
106,Line,97,208,25,108
107,Line,114,260,25,18
108,Line,72,133,27,2
109,Line,189,286,27,2
110,Line,72,194,27,6
111,Line,125,52,20,46
112,Line,93,119,27,98
113,Line,52,137,26,109
114,Line,92,70,27,102
115,Line,78,203,28,8
116,Line,92,114,27,109
117,Line,133,290,28,16
118,Line,35,163,30,1
119,Line,198,309,30,1
120,Line,171,196,35,176
121,Line,53,80,35,153
122,Line,157,185,39,176
123,Line,75,98,43,171
124,Line,164,189,43,169
125,Line,79,314,43,14
126,Line,104,274,42,20
127,Line,71,274,42,20
128,Line,68,158,47,2
129,Line,156,134,47,9
130,Line,181,220,47,15
131,Line,127,361,47,18
132,Line,48,223,46,21
133,Line,66,269,47,19
134,Line,155,104,47,20
135,Line,124,251,50,10
136,Line,197,350,51,175
137,Line,115,179,51,175
138,Line,78,100,51,174
139,Line,112,113,51,6
140,Line,168,153,51,9
141,Line,40,123,51,168
142,Line,193,269,51,11
143,Line,121,256,51,12
144,Circle,98,215,13,0
145,Circle,110,371,14,0
