^E:\COMPASSCAMERA\COMPASS\GLEW.C
/c /IC:\Users\compass\Desktop\opencv\build\include /I"C:\Program Files (x86)\OptiTrack\Camera SDK\\include" /I..\.. /I..\..\..\cameracommon /Zi /nologo /W3 /WX- /O2 /Oy- /GL /D WIN32 /D NDEBUG /D _WINDOWS /D CAMERALIBRARY_IMPORTS /D GLEW_STATIC /D _MBCS /Gm- /EHsc /MT /GS /fp:precise /Zc:wchar_t /Zc:forScope /Fo"RELEASE\\" /Fd"RELEASE\VC120.PDB" /Gd /TC /analyze- E:\COMPASSCAMERA\COMPASS\GLEW.C
^E:\COMPASSCAMERA\COMPASS\MAIN.CPP
/c /IC:\Users\compass\Desktop\opencv\build\include /I"C:\Program Files (x86)\OptiTrack\Camera SDK\\include" /I..\.. /I..\..\..\cameracommon /Zi /nologo /W3 /WX- /O2 /Oy- /GL /D WIN32 /D NDEBUG /D _WINDOWS /D CAMERALIBRARY_IMPORTS /D GLEW_STATIC /D _MBCS /Gm- /EHsc /MT /GS /fp:precise /Zc:wchar_t /Zc:forScope /Fo"RELEASE\\" /Fd"RELEASE\VC120.PDB" /Gd /TP /analyze- E:\COMPASSCAMERA\COMPASS\MAIN.CPP
^E:\COMPASSCAMERA\COMPASS\SUPPORTCODE.CPP
/c /IC:\Users\compass\Desktop\opencv\build\include /I"C:\Program Files (x86)\OptiTrack\Camera SDK\\include" /I..\.. /I..\..\..\cameracommon /Zi /nologo /W3 /WX- /O2 /Oy- /GL /D WIN32 /D NDEBUG /D _WINDOWS /D CAMERALIBRARY_IMPORTS /D GLEW_STATIC /D _MBCS /Gm- /EHsc /MT /GS /fp:precise /Zc:wchar_t /Zc:forScope /Fo"RELEASE\\" /Fd"RELEASE\VC120.PDB" /Gd /TP /analyze- E:\COMPASSCAMERA\COMPASS\SUPPORTCODE.CPP
